Proyecto final Ciencia de Datos con R: Micro, pequeñas y medianas empresas en el Uruguay.
…
Evaluación

A partir de los modelos entrenados calcularemos las métricas de error poniendo foco en el RMSE|

Code

tree_eval_tbl <- tree_preds_tbl |>
  modeltime_accuracy()
tree_eval_tbl

# A tibble: 54 × 9
   .model_id .model_desc           .type   mae   mape   mase smape  rmse   rsq
       <int> <chr>                 <chr> <dbl>  <dbl>  <dbl> <dbl> <dbl> <dbl>
 1         1 RECIPE_RAND_FOREST_1  Test  2089. 1140.  0.517  123.  7207. 0.367
 2         2 RECIPE_RAND_FOREST_2  Test   458.   50.4 0.113   43.9 1097. 0.992
 3         3 RECIPE_RAND_FOREST_3  Test   376.   75.0 0.0930  35.5 1163. 0.983
 4         4 RECIPE_RAND_FOREST_4  Test  1857.   91.2 0.459   65.9 7400. 0.354
 5         5 RECIPE_RAND_FOREST_5  Test   412.  118.  0.102   47.6 1261. 0.996
 6         6 RECIPE_RAND_FOREST_6  Test   463.   37.9 0.115   38.5 1243. 0.987
 7         7 RECIPE_RAND_FOREST_7  Test  1080.  109.  0.267   71.8 2355. 0.940
 8         8 RECIPE_RAND_FOREST_8  Test  2019.  217.  0.499   62.5 7010. 0.372
 9         9 RECIPE_RAND_FOREST_9  Test  1364.  579.  0.337   48.6 3371. 0.860
10        10 RECIPE_RAND_FOREST_10 Test  1491.  968.  0.369  101.  4538. 0.846
# ℹ 44 more rows
…
models_tbl <- modeltime_table(
  wf_linear,
  wf_rand_forest,
  wf_xgboost
)

preds_tbl <- models_tbl |>
  modeltime_calibrate(new_data = test)

preds_tbl$.calibration_data

[[1]]
# A tibble: 76 × 4
   anio       .actual .prediction .residuals
   <date>       <dbl>       <dbl>      <dbl>
 1 2018-01-01       3     -264.        267. 
 2 2018-01-01      68       -4.80       72.8
 3 2018-01-01    2270     3254.       -984. 
 4 2018-01-01     303      575.       -272. 
 5 2018-01-01     123       11.1       112. 
 6 2018-01-01     751      327.        424. 
 7 2018-01-01   19238    20384.      -1146. 
 8 2018-01-01    2625     1320.       1305. 
 9 2018-01-01       9     -266.        275. 
10 2018-01-01      87      -17.8       105. 
# ℹ 66 more rows

[[2]]
# A tibble: 76 × 4
   anio       .actual .prediction .residuals
   <date>       <dbl>       <dbl>      <dbl>
 1 2018-01-01       3        8.45      -5.45
 2 2018-01-01      68       57.7       10.3 
 3 2018-01-01    2270     2770.      -500.  
 4 2018-01-01     303      330.       -26.9 
 5 2018-01-01     123      686.      -563.  
 6 2018-01-01     751     1066.      -315.  
 7 2018-01-01   19238    16720.      2518.  
 8 2018-01-01    2625     3059.      -434.  
 9 2018-01-01       9       13.4       -4.41
10 2018-01-01      87       72.6       14.4 
# ℹ 66 more rows

[[3]]
# A tibble: 76 × 4
   anio       .actual .prediction .residuals
   <date>       <dbl>       <dbl>      <dbl>
 1 2018-01-01       3        3.72    -0.720 
 2 2018-01-01      68       44.7     23.3   
 3 2018-01-01    2270     2545.    -275.    
 4 2018-01-01     303      299.       4.08  
 5 2018-01-01     123       51.5     71.5   
 6 2018-01-01     751      575.     176.    
 7 2018-01-01   19238    18600.     638.    
 8 2018-01-01    2625     2575.      50.2   
 9 2018-01-01       9        8.93     0.0738
10 2018-01-01      87       80.0      7.03  
# ℹ 66 more rows
…
